Simulation results predictive performance person-specific VAR(1) model
…
Model.effect <- RM.Anova.MSPE %>%
  group_by(Model) %>%
  anova_test(dv = MSPE, wid = id.dat, between = c(Time,Persons,Variables))

## Coefficient covariances computed by hccm()
## Coefficient covariances computed by hccm()
## Coefficient covariances computed by hccm()
## Coefficient covariances computed by hccm()
## Coefficient covariances computed by hccm()
## Coefficient covariances computed by hccm()

Model.effect

## # A tibble: 42 x 8
##    Model  Effect                   DFn   DFd         F         p `p<.05`     ges
##    <fct>  <chr>                  <dbl> <dbl>     <dbl>     <dbl> <chr>     <dbl>
##  1 MAR.FE Time                       2  2673   855.    1.20e-287 "*"     3.90e-1
##  2 MAR.FE Persons                    2  2673    22.4   2.29e- 10 "*"     1.60e-2
##  3 MAR.FE Variables                  2  2673 68581.    0.        "*"     9.81e-1
##  4 MAR.FE Time:Persons               4  2673     0.583 6.75e-  1 ""      8.72e-4
##  5 MAR.FE Time:Variables             4  2673   562.    0.        "*"     4.57e-1
##  6 MAR.FE Persons:Variables          4  2673     6.15  6.31e-  5 "*"     9.00e-3
##  7 MAR.FE Time:Persons:Variables     8  2673     0.933 4.88e-  1 ""      3.00e-3
##  8 MAR.RE Time                       2  2673   866.    1.43e-290 "*"     3.93e-1
##  9 MAR.RE Persons                    2  2673     1.67  1.89e-  1 ""      1.00e-3
## 10 MAR.RE Variables                  2  2673 65738.    0.        "*"     9.80e-1
## # ... with 32 more rows

# Fit pairwise comparisons
pwc <- RM.Anova.MSPE %>%
  group_by(Time, Persons, Variables) %>%
  pairwise_t_test(MSPE ~ Model, p.adjust.method = "bonferroni") %>%
  select(-p, -p.signif) # Remove details
pwc

## # A tibble: 405 x 10
##    Variables Persons Time  .y.   group1 group2    n1    n2    p.adj p.adj.signif
##    <fct>     <fct>   <fct> <chr> <chr>  <chr>  <int> <int>    <dbl> <chr>       
##  1 2         20      50    MSPE  MAR.FE MAR.RE   100   100 1.00e+ 0 ns          
##  2 2         20      50    MSPE  MAR.FE MVAR.~   100   100 6.99e- 2 ns          
##  3 2         20      50    MSPE  MAR.RE MVAR.~   100   100 3.72e- 1 ns          
##  4 2         20      50    MSPE  MAR.FE MVAR.~   100   100 1.49e- 2 *           
##  5 2         20      50    MSPE  MAR.RE MVAR.~   100   100 1.01e- 1 ns          
##  6 2         20      50    MSPE  MVAR.~ MVAR.~   100   100 1.00e+ 0 ns          
##  7 2         20      50    MSPE  MAR.FE AR       100   100 1.03e- 6 ****        
##  8 2         20      50    MSPE  MAR.RE AR       100   100 3.75e- 8 ****        
##  9 2         20      50    MSPE  MVAR.~ AR       100   100 1.02e-14 ****        
## 10 2         20      50    MSPE  MVAR.~ AR       100   100 2.76e-16 ****        
## # ... with 395 more rows
…
Model.effect <- RM.Anova.R2 %>%
  group_by(Model) %>%
  anova_test(dv = R2, wid = id.dat, between = c(Time,Persons,Variables))

## Coefficient covariances computed by hccm()
## Coefficient covariances computed by hccm()
## Coefficient covariances computed by hccm()
## Coefficient covariances computed by hccm()
## Coefficient covariances computed by hccm()
## Coefficient covariances computed by hccm()

Model.effect

## # A tibble: 42 x 8
##    Model  Effect                   DFn   DFd         F        p `p<.05`   ges
##    <fct>  <chr>                  <dbl> <dbl>     <dbl>    <dbl> <chr>   <dbl>
##  1 MAR.FE Time                       2  2673 103849.   0.       *       0.987
##  2 MAR.FE Persons                    2  2673     21.7  4.70e-10 *       0.016
##  3 MAR.FE Variables                  2  2673   8968.   0.       *       0.87 
##  4 MAR.FE Time:Persons               4  2673      5.08 4.42e- 4 *       0.008
##  5 MAR.FE Time:Variables             4  2673   5910.   0.       *       0.898
##  6 MAR.FE Persons:Variables          4  2673     11.4  3.86e- 9 *       0.017
##  7 MAR.FE Time:Persons:Variables     8  2673      3.13 2.00e- 3 *       0.009
##  8 MAR.RE Time                       2  2673 104634.   0.       *       0.987
##  9 MAR.RE Persons                    2  2673     24.1  4.37e-11 *       0.018
## 10 MAR.RE Variables                  2  2673   7907.   0.       *       0.855
## # ... with 32 more rows

# Fit pairwise comparisons
pwc <- RM.Anova.R2 %>%
  group_by(Time, Persons, Variables) %>%
  pairwise_t_test(R2 ~ Model, p.adjust.method = "bonferroni") %>%
  select(-p, -p.signif) # Remove details
pwc

## # A tibble: 405 x 10
##    Variables Persons Time  .y.   group1 group2    n1    n2    p.adj p.adj.signif
##    <fct>     <fct>   <fct> <chr> <chr>  <chr>  <int> <int>    <dbl> <chr>       
##  1 2         20      50    R2    MAR.FE MAR.RE   100   100 1.00e+ 0 ns          
##  2 2         20      50    R2    MAR.FE MVAR.~   100   100 3.52e- 3 **          
##  3 2         20      50    R2    MAR.RE MVAR.~   100   100 5.05e- 2 ns          
##  4 2         20      50    R2    MAR.FE MVAR.~   100   100 2.95e- 4 ***         
##  5 2         20      50    R2    MAR.RE MVAR.~   100   100 6.32e- 3 **          
##  6 2         20      50    R2    MVAR.~ MVAR.~   100   100 1.00e+ 0 ns          
##  7 2         20      50    R2    MAR.FE AR       100   100 4.18e-11 ****        
##  8 2         20      50    R2    MAR.RE AR       100   100 2.12e-13 ****        
##  9 2         20      50    R2    MVAR.~ AR       100   100 6.35e-24 ****        
## 10 2         20      50    R2    MVAR.~ AR       100   100 2.36e-26 ****        
## # ... with 395 more rows
…
