Simulation results predictive performance multilevel VAR(1) model with fixed effects
…
Model.effect <- RM.Anova.MSPE %>%
  group_by(Model) %>%
  anova_test(dv = MSPE, wid = id.dat, between = c(Time,Persons,Variables))

## Coefficient covariances computed by hccm()
## Coefficient covariances computed by hccm()
## Coefficient covariances computed by hccm()
## Coefficient covariances computed by hccm()
## Coefficient covariances computed by hccm()
## Coefficient covariances computed by hccm()

Model.effect

## # A tibble: 42 x 8
##    Model  Effect                   DFn   DFd         F         p `p<.05`     ges
##    <fct>  <chr>                  <dbl> <dbl>     <dbl>     <dbl> <chr>     <dbl>
##  1 MAR.FE Time                       2  2673   828.    1.06e-280 "*"     3.83e-1
##  2 MAR.FE Persons                    2  2673     0.928 3.95e-  1 ""      6.94e-4
##  3 MAR.FE Variables                  2  2673 94546.    0.        "*"     9.86e-1
##  4 MAR.FE Time:Persons               4  2673     0.236 9.18e-  1 ""      3.54e-4
##  5 MAR.FE Time:Variables             4  2673   711.    0.        "*"     5.16e-1
##  6 MAR.FE Persons:Variables          4  2673     1.02  3.95e-  1 ""      2.00e-3
##  7 MAR.FE Time:Persons:Variables     8  2673     1.30  2.38e-  1 ""      4.00e-3
##  8 MAR.RE Time                       2  2673  1042.    0.        "*"     4.38e-1
##  9 MAR.RE Persons                    2  2673     2.47  8.50e-  2 ""      2.00e-3
## 10 MAR.RE Variables                  2  2673 86481.    0.        "*"     9.85e-1
## # ... with 32 more rows

# Fit pairwise comparisons
pwc <- RM.Anova.MSPE %>%
  group_by(Time, Persons, Variables) %>%
  pairwise_t_test(MSPE ~ Model, p.adjust.method = "bonferroni") %>%
  select(-p, -p.signif) # Remove details
pwc

## # A tibble: 405 x 10
##    Variables Persons Time  .y.   group1 group2    n1    n2    p.adj p.adj.signif
##    <fct>     <fct>   <fct> <chr> <chr>  <chr>  <int> <int>    <dbl> <chr>       
##  1 2         20      50    MSPE  MAR.FE MAR.RE   100   100 1.00e+ 0 ns          
##  2 2         20      50    MSPE  MAR.FE MVAR.~   100   100 6.74e- 3 **          
##  3 2         20      50    MSPE  MAR.RE MVAR.~   100   100 2.82e- 3 **          
##  4 2         20      50    MSPE  MAR.FE MVAR.~   100   100 3.43e- 2 *           
##  5 2         20      50    MSPE  MAR.RE MVAR.~   100   100 1.58e- 2 *           
##  6 2         20      50    MSPE  MVAR.~ MVAR.~   100   100 1.00e+ 0 ns          
##  7 2         20      50    MSPE  MAR.FE AR       100   100 1.54e-15 ****        
##  8 2         20      50    MSPE  MAR.RE AR       100   100 8.89e-15 ****        
##  9 2         20      50    MSPE  MVAR.~ AR       100   100 5.04e-29 ****        
## 10 2         20      50    MSPE  MVAR.~ AR       100   100 4.51e-27 ****        
## # ... with 395 more rows
…
Model.effect <- RM.Anova.R2 %>%
  group_by(Model) %>%
  anova_test(dv = R2, wid = id.dat, between = c(Time,Persons,Variables))

## Coefficient covariances computed by hccm()
## Coefficient covariances computed by hccm()
## Coefficient covariances computed by hccm()
## Coefficient covariances computed by hccm()
## Coefficient covariances computed by hccm()
## Coefficient covariances computed by hccm()

Model.effect

## # A tibble: 42 x 8
##    Model  Effect                   DFn   DFd         F     p `p<.05`      ges
##    <fct>  <chr>                  <dbl> <dbl>     <dbl> <dbl> <chr>      <dbl>
##  1 MAR.FE Time                       2  2673 92771.    0     "*"     0.986   
##  2 MAR.FE Persons                    2  2673     1.50  0.224 ""      0.001   
##  3 MAR.FE Variables                  2  2673 13385.    0     "*"     0.909   
##  4 MAR.FE Time:Persons               4  2673     0.252 0.909 ""      0.000377
##  5 MAR.FE Time:Variables             4  2673  8336.    0     "*"     0.926   
##  6 MAR.FE Persons:Variables          4  2673     1.15  0.332 ""      0.002   
##  7 MAR.FE Time:Persons:Variables     8  2673     1.29  0.245 ""      0.004   
##  8 MAR.RE Time                       2  2673 88439.    0     "*"     0.985   
##  9 MAR.RE Persons                    2  2673     5.67  0.003 "*"     0.004   
## 10 MAR.RE Variables                  2  2673 10224.    0     "*"     0.884   
## # ... with 32 more rows

# Fit pairwise comparisons
pwc <- RM.Anova.R2 %>%
  group_by(Time, Persons, Variables) %>%
  pairwise_t_test(R2 ~ Model, p.adjust.method = "bonferroni") %>%
  select(-p, -p.signif) # Remove details
pwc

## # A tibble: 405 x 10
##    Variables Persons Time  .y.   group1 group2    n1    n2    p.adj p.adj.signif
##    <fct>     <fct>   <fct> <chr> <chr>  <chr>  <int> <int>    <dbl> <chr>       
##  1 2         20      50    R2    MAR.FE MAR.RE   100   100 1.00e+ 0 ns          
##  2 2         20      50    R2    MAR.FE MVAR.~   100   100 5.08e- 5 ****        
##  3 2         20      50    R2    MAR.RE MVAR.~   100   100 1.15e- 5 ****        
##  4 2         20      50    R2    MAR.FE MVAR.~   100   100 8.35e- 4 ***         
##  5 2         20      50    R2    MAR.RE MVAR.~   100   100 2.24e- 4 ***         
##  6 2         20      50    R2    MVAR.~ MVAR.~   100   100 1.00e+ 0 ns          
##  7 2         20      50    R2    MAR.FE AR       100   100 2.72e-26 ****        
##  8 2         20      50    R2    MAR.RE AR       100   100 4.77e-25 ****        
##  9 2         20      50    R2    MVAR.~ AR       100   100 1.44e-47 ****        
## 10 2         20      50    R2    MVAR.~ AR       100   100 1.65e-44 ****        
## # ... with 395 more rows
…
