Simulation results predictive performance multilevel VAR(1) model with random effects
…
Model.effect <- RM.Anova.MSPE %>%
  group_by(Model) %>%
  anova_test(dv = MSPE, wid = id.dat, between = c(Time,Persons,Variables))

## Coefficient covariances computed by hccm()
## Coefficient covariances computed by hccm()
## Coefficient covariances computed by hccm()
## Coefficient covariances computed by hccm()
## Coefficient covariances computed by hccm()
## Coefficient covariances computed by hccm()

Model.effect

## # A tibble: 42 x 8
##    Model  Effect                   DFn   DFd         F         p `p<.05`     ges
##    <fct>  <chr>                  <dbl> <dbl>     <dbl>     <dbl> <chr>     <dbl>
##  1 MAR.FE Time                       2  2673   308.    5.65e-121 "*"     1.87e-1
##  2 MAR.FE Persons                    2  2673     7.76  4.38e-  4 "*"     6.00e-3
##  3 MAR.FE Variables                  2  2673 41578.    0.        "*"     9.69e-1
##  4 MAR.FE Time:Persons               4  2673     3.55  7.00e-  3 "*"     5.00e-3
##  5 MAR.FE Time:Variables             4  2673    86.6   2.63e- 69 "*"     1.15e-1
##  6 MAR.FE Persons:Variables          4  2673     0.492 7.41e-  1 ""      7.36e-4
##  7 MAR.FE Time:Persons:Variables     8  2673     0.571 8.02e-  1 ""      2.00e-3
##  8 MAR.RE Time                       2  2673    16.3   9.01e-  8 "*"     1.20e-2
##  9 MAR.RE Persons                    2  2673     1.05  3.50e-  1 ""      7.86e-4
## 10 MAR.RE Variables                  2  2673 58659.    0.        "*"     9.78e-1
## # ... with 32 more rows

# Fit pairwise comparisons
pwc <- RM.Anova.MSPE %>%
  group_by(Time, Persons, Variables) %>%
  pairwise_t_test(MSPE ~ Model, p.adjust.method = "bonferroni") %>%
  select(-p, -p.signif) # Remove details
pwc

## # A tibble: 405 x 10
##    Variables Persons Time  .y.   group1 group2    n1    n2    p.adj p.adj.signif
##    <fct>     <fct>   <fct> <chr> <chr>  <chr>  <int> <int>    <dbl> <chr>       
##  1 2         20      50    MSPE  MAR.FE MAR.RE   100   100 2.33e- 3 **          
##  2 2         20      50    MSPE  MAR.FE MVAR.~   100   100 1.74e- 3 **          
##  3 2         20      50    MSPE  MAR.RE MVAR.~   100   100 1.00e+ 0 ns          
##  4 2         20      50    MSPE  MAR.FE MVAR.~   100   100 7.60e-19 ****        
##  5 2         20      50    MSPE  MAR.RE MVAR.~   100   100 2.93e- 7 ****        
##  6 2         20      50    MSPE  MVAR.~ MVAR.~   100   100 4.41e- 7 ****        
##  7 2         20      50    MSPE  MAR.FE AR       100   100 1.00e+ 0 ns          
##  8 2         20      50    MSPE  MAR.RE AR       100   100 3.75e- 6 ****        
##  9 2         20      50    MSPE  MVAR.~ AR       100   100 2.55e- 6 ****        
## 10 2         20      50    MSPE  MVAR.~ AR       100   100 3.23e-24 ****        
## # ... with 395 more rows
…
Model.effect <- RM.Anova.R2 %>%
  group_by(Model) %>%
  anova_test(dv = R2, wid = id.dat, between = c(Time,Persons,Variables))

## Coefficient covariances computed by hccm()
## Coefficient covariances computed by hccm()
## Coefficient covariances computed by hccm()
## Coefficient covariances computed by hccm()
## Coefficient covariances computed by hccm()
## Coefficient covariances computed by hccm()

Model.effect

## # A tibble: 42 x 8
##    Model  Effect                   DFn   DFd         F         p `p<.05`     ges
##    <fct>  <chr>                  <dbl> <dbl>     <dbl>     <dbl> <chr>     <dbl>
##  1 MAR.FE Time                       2  2673 30230.    0.        "*"     9.58e-1
##  2 MAR.FE Persons                    2  2673     0.291 7.48e-  1 ""      2.18e-4
##  3 MAR.FE Variables                  2  2673    75.0   2.04e- 32 "*"     5.30e-2
##  4 MAR.FE Time:Persons               4  2673     0.373 8.28e-  1 ""      5.58e-4
##  5 MAR.FE Time:Variables             4  2673  1189.    0.        "*"     6.40e-1
##  6 MAR.FE Persons:Variables          4  2673     0.653 6.25e-  1 ""      9.76e-4
##  7 MAR.FE Time:Persons:Variables     8  2673     1.27  2.53e-  1 ""      4.00e-3
##  8 MAR.RE Time                       2  2673 40737.    0.        "*"     9.68e-1
##  9 MAR.RE Persons                    2  2673    13.7   1.18e-  6 "*"     1.00e-2
## 10 MAR.RE Variables                  2  2673   342.    6.96e-133 "*"     2.04e-1
## # ... with 32 more rows

# Fit pairwise comparisons
pwc <- RM.Anova.R2 %>%
  group_by(Time, Persons, Variables) %>%
  pairwise_t_test(R2 ~ Model, p.adjust.method = "bonferroni") %>%
  select(-p, -p.signif) # Remove details
pwc

## # A tibble: 405 x 10
##    Variables Persons Time  .y.   group1 group2    n1    n2    p.adj p.adj.signif
##    <fct>     <fct>   <fct> <chr> <chr>  <chr>  <int> <int>    <dbl> <chr>       
##  1 2         20      50    R2    MAR.FE MAR.RE   100   100 3.09e- 4 ***         
##  2 2         20      50    R2    MAR.FE MVAR.~   100   100 1.85e- 4 ***         
##  3 2         20      50    R2    MAR.RE MVAR.~   100   100 1.00e+ 0 ns          
##  4 2         20      50    R2    MAR.FE MVAR.~   100   100 1.73e-23 ****        
##  5 2         20      50    R2    MAR.RE MVAR.~   100   100 3.81e- 9 ****        
##  6 2         20      50    R2    MVAR.~ MVAR.~   100   100 7.72e- 9 ****        
##  7 2         20      50    R2    MAR.FE AR       100   100 1.00e+ 0 ns          
##  8 2         20      50    R2    MAR.RE AR       100   100 8.47e- 8 ****        
##  9 2         20      50    R2    MVAR.~ AR       100   100 4.34e- 8 ****        
## 10 2         20      50    R2    MVAR.~ AR       100   100 3.61e-30 ****        
## # ... with 395 more rows
…
